{
  "data" : [
    {
      "filename" : "03_Soundwave_High.gif",
      "idiom" : "universal",
      "universal-type-identifier" : "com.compuserve.gif"
    }
  ],
  "info" : {
    "author" : "xcode",
    "version" : 1
  }
}
